{
  "type": "minecraft:crafting_shapeless",
  "group": "uniore",
  "ingredients": [
    {
      "item": "uniore:titanium_block"
    }
  ],
  "result": {
    "item": "uniore:titanium_ingot",
    "count": 9
  }
}