{
  "type": "minecraft:crafting_shaped",
  "group": "uniore",
  "pattern": [
    "###",
    "###",
    "###"
  ],
  "key": {
    "#": {
      "item": "uniore:tungsten_nugget"
    }
  },
  "result": {
    "item": "uniore:tungsten_ingot"
  }
}