{
  "parent": "minecraft:recipes/root",
  "rewards": {
    "recipes": [
      "uniore:silver_ore_to_silver_ingot_by_blasting"
    ]
  },
  "criteria": {
    "silver_ingot": {
      "trigger": "minecraft:inventory_changed",
      "conditions": {
        "items": [
          {
            "item": "uniore:silver_ore"
          }
        ]
      }
    },
    "has_the_recipe": {
      "trigger": "minecraft:recipe_unlocked",
      "conditions": {
        "recipe": "uniore:silver_ore_to_silver_ingot_by_blasting"
      }
    }
  },
  "requirements": [
    [
      "silver_ingot",
      "has_the_recipe"
    ]
  ]
}