{
  "parent": "minecraft:recipes/root",
  "rewards": {
    "recipes": [
      "uniore:tin_ingot_to_tin_block"
    ]
  },
  "criteria": {
    "tin_ingot": {
      "trigger": "minecraft:inventory_changed",
      "conditions": {
        "items": [
          {
            "item": "uniore:tin_ingot"
          }
        ]
      }
    },
    "has_the_recipe": {
      "trigger": "minecraft:recipe_unlocked",
      "conditions": {
        "recipe": "uniore:tin_ingot_to_tin_block"
      }
    }
  },
  "requirements": [
    [
      "tin_ingot",
      "has_the_recipe"
    ]
  ]
}