{
  "parent": "minecraft:recipes/root",
  "rewards": {
    "recipes": [
      "uniore:tungsten_raw_to_tungsten_ingot_by_smelting"
    ]
  },
  "criteria": {
    "tungsten_ingot": {
      "trigger": "minecraft:inventory_changed",
      "conditions": {
        "items": [
          {
            "item": "uniore:tungsten_raw"
          }
        ]
      }
    },
    "has_the_recipe": {
      "trigger": "minecraft:recipe_unlocked",
      "conditions": {
        "recipe": "uniore:tungsten_raw_to_tungsten_ingot_by_smelting"
      }
    }
  },
  "requirements": [
    [
      "tungsten_ingot",
      "has_the_recipe"
    ]
  ]
}