{
  "parent": "minecraft:recipes/root",
  "rewards": {
    "recipes": [
      "uniore:zinc_ore_to_zinc_ingot_by_smelting"
    ]
  },
  "criteria": {
    "zinc_ingot": {
      "trigger": "minecraft:inventory_changed",
      "conditions": {
        "items": [
          {
            "item": "uniore:zinc_ore"
          }
        ]
      }
    },
    "has_the_recipe": {
      "trigger": "minecraft:recipe_unlocked",
      "conditions": {
        "recipe": "uniore:zinc_ore_to_zinc_ingot_by_smelting"
      }
    }
  },
  "requirements": [
    [
      "zinc_ingot",
      "has_the_recipe"
    ]
  ]
}